…
Let's find out where these missing values are

```r
missing_time <- raw_data %>%
  filter(is.na(steps)) %>%
  group_by(interval) %>%
  summarise(count = n())
missing_time
```

```
## # A tibble: 288 x 2
##    interval count
##       <dbl> <int>
##  1        0     8
##  2        5     8
##  3       10     8
##  4       15     8
##  5       20     8
##  6       25     8
##  7       30     8
##  8       35     8
##  9       40     8
## 10       45     8
## # ... with 278 more rows
```
…
